<?xml version="1.0" encoding="UTF-8" standalone="no"?>
<!DOCTYPE svg PUBLIC "-//W3C//DTD SVG 1.1//EN" "http://www.w3.org/Graphics/SVG/1.1/DTD/svg11.dtd">
<svg width="100%" height="100%" viewBox="0 0 881 387" version="1.1" xmlns="http://www.w3.org/2000/svg" xmlns:xlink="http://www.w3.org/1999/xlink" xml:space="preserve" xmlns:serif="http://www.serif.com/" style="fill-rule:evenodd;clip-rule:evenodd;stroke-linejoin:round;stroke-miterlimit:2;">
    <g transform="matrix(1,0,0,1,-33.3385,-11.2983)">
        <g transform="matrix(1,0,0,1,294.909,281.343)">
            <path d="M0,72.699C-10.067,82.741 -22.184,87.787 -36.35,87.787C-50.515,87.787 -62.631,82.741 -72.699,72.699C-82.766,62.632 -87.787,50.515 -87.787,36.349C-87.787,22.184 -82.766,10.068 -72.699,0C-62.631,-10.041 -50.515,-15.088 -36.35,-15.088C-22.184,-15.088 -10.067,-10.041 0,0C10.042,10.068 15.088,22.184 15.088,36.349C15.088,50.515 10.042,62.632 0,72.699M20.211,-20.237C4.611,-35.837 -14.268,-43.65 -36.35,-43.65C-58.456,-43.65 -77.31,-35.837 -92.936,-20.237C-108.561,-4.611 -116.349,14.243 -116.349,36.349C-116.349,58.456 -108.561,77.31 -92.936,92.936C-77.31,108.536 -58.456,116.349 -36.35,116.349C-14.268,116.349 4.611,108.536 20.211,92.936C35.837,77.31 43.65,58.456 43.65,36.349C43.65,14.243 35.837,-4.611 20.211,-20.237" style="fill:white;fill-rule:nonzero;"/>
        </g>
        <g transform="matrix(1,0,0,1,166.744,179.399)">
            <path d="M0,119.273C-9.022,123.879 -19.003,126.183 -29.873,126.183C-48.204,126.183 -63.896,119.681 -76.9,106.676C-89.905,93.624 -96.407,77.956 -96.407,59.624C-96.407,41.269 -89.905,25.601 -76.9,12.596C-63.896,-0.408 -48.204,-6.911 -29.873,-6.911C-11.541,-6.911 4.175,-0.408 17.179,12.596C17.947,13.364 18.691,14.156 19.411,14.924C22.578,18.379 27.88,18.523 31.192,15.212C31.216,15.188 31.24,15.188 31.24,15.164C38.15,8.23 45.684,2.639 53.77,-1.584C50.699,-5.735 47.196,-9.766 43.333,-13.605C23.154,-33.784 -1.272,-43.909 -29.873,-43.909C-58.449,-43.909 -82.875,-33.784 -103.078,-13.605C-123.28,6.622 -133.406,31.047 -133.406,59.624C-133.406,88.657 -122.944,113.395 -102.142,133.765C-82.779,152.696 -56.961,163.182 -29.873,163.182C-19.219,163.182 -9.166,161.79 0.336,158.935C-1.08,152.336 -1.8,145.45 -1.8,138.3C-1.8,131.726 -1.2,125.391 0,119.273" style="fill:white;fill-rule:nonzero;"/>
        </g>
        <g transform="matrix(1,0,0,1,719.949,255.45)">
            <path d="M0,-19.635L-31.68,-28.235C-37.108,-29.845 -41.366,-31.948 -44.333,-34.482C-47.215,-36.942 -48.616,-39.986 -48.616,-43.787C-48.616,-48.156 -46.534,-51.775 -42.251,-54.847C-37.917,-57.954 -32.013,-59.605 -24.725,-59.753C-13.034,-59.753 -0.941,-56.142 11.218,-49.022L11.946,-48.595L32.052,-71.603L31.117,-72.253C14.108,-84.096 -4.833,-90.102 -25.201,-90.102C-41.086,-89.791 -54.183,-85.172 -64.129,-76.371C-74.125,-67.527 -79.194,-56.639 -79.194,-44.014C-79.194,-32.939 -75.759,-23.343 -68.983,-15.493C-62.233,-7.669 -52.611,-2.073 -40.389,1.136L-9.808,9.287C-5.336,10.444 -1.728,12.445 0.918,15.23C3.545,18.003 4.823,21.218 4.823,25.059C4.823,29.373 2.224,32.856 -3.125,35.706C-8.609,38.635 -16.638,40.117 -26.99,40.117C-37.533,40.117 -49.211,37.478 -61.701,32.269L-62.42,31.97L-81.092,55.975L-80,56.539C-62.123,65.781 -44.212,70.467 -26.767,70.467C-5.631,70.467 10.32,66.159 20.646,57.668C31.038,49.126 36.308,38.307 36.308,25.514C36.308,14.002 32.99,4.216 26.445,-3.568C19.911,-11.322 11.012,-16.729 0,-19.635" style="fill:white;fill-rule:nonzero;"/>
        </g>
        <g transform="matrix(1,0,0,1,516.114,67.3966)">
            <path d="M0,57.836C-3.484,59.696 -8.585,60.638 -15.16,60.638C-21.857,60.638 -29.276,58.961 -37.21,55.653L-37.667,55.463L-49.528,70.711L-48.835,71.07C-37.478,76.94 -26.1,79.918 -15.018,79.918C-1.592,79.918 8.541,77.181 15.1,71.787C21.702,66.361 25.049,59.488 25.049,51.361C25.049,44.049 22.941,37.833 18.783,32.888C14.633,27.961 8.98,24.527 1.985,22.681L-18.14,17.218C-21.588,16.195 -24.292,14.859 -26.177,13.25C-28.008,11.688 -28.898,9.754 -28.898,7.339C-28.898,4.563 -27.575,2.265 -24.855,0.314C-22.102,-1.661 -18.351,-2.709 -13.721,-2.803C-6.295,-2.803 1.387,-0.51 9.111,4.014L9.574,4.285L22.345,-10.331L21.751,-10.744C10.947,-18.267 -1.085,-22.082 -14.023,-22.082C-24.115,-21.885 -32.434,-18.951 -38.752,-13.36C-45.102,-7.741 -48.322,-0.825 -48.322,7.194C-48.322,14.23 -46.14,20.326 -41.836,25.313C-37.548,30.283 -31.436,33.837 -23.671,35.876L-4.246,41.054C-1.405,41.788 0.888,43.06 2.568,44.829C4.237,46.59 5.048,48.633 5.048,51.073C5.048,53.813 3.397,56.025 0,57.836" style="fill:white;fill-rule:nonzero;"/>
        </g>
        <g transform="matrix(1,0,0,1,321.143,235.854)">
            <path d="M0,-54.808L0,-69.811L-29.537,-69.811L-29.537,-3.838C-25.312,-2.205 -21.229,-0.266 -17.289,2C-15.554,3.021 -13.84,4.082 -12.166,5.225C-7.94,8.063 -3.878,11.329 0,15.003L0,8.43C0.225,-22.066 18.759,-40.274 49.603,-40.274L64.381,-40.274L64.381,-69.811L49.603,-69.811C30.312,-69.811 13.268,-64.484 0,-54.808" style="fill:white;fill-rule:nonzero;"/>
        </g>
        <g transform="matrix(1,0,0,1,488.282,324.893)">
            <path d="M0,-158.841L-14.767,-158.841C-34.055,-158.841 -51.107,-153.525 -64.374,-143.857L-64.374,-158.841L-93.908,-158.841L-93.908,0L-64.374,0L-64.374,-80.61C-64.16,-111.103 -45.615,-129.309 -14.767,-129.309L0,-129.309L0,-158.841Z" style="fill:white;fill-rule:nonzero;"/>
        </g>
        <g transform="matrix(1,0,0,1,513.338,260.235)">
            <path d="M0,-29.535C5.559,-49.976 22.414,-64.655 42.343,-64.655C62.4,-64.655 79.871,-49.49 85.071,-29.535L0,-29.535ZM116.169,-14.754C116.169,-58.558 83.047,-94.19 42.343,-94.19C1.639,-94.19 -31.482,-58.558 -31.482,-14.754C-31.482,29.024 1.639,64.655 42.241,64.655L43.137,64.655C69.445,64.655 90.604,53.82 106.025,32.43L113.223,22.44L89.502,5.508L82.33,15.165C75.952,23.747 64.937,35.12 43.009,35.12L42.343,35.12C22.414,35.12 5.559,20.467 0,0.001L116.169,0.001L116.169,-14.754Z" style="fill:white;fill-rule:nonzero;"/>
        </g>
        <g transform="matrix(1,0,0,1,839.969,195.58)">
            <path d="M0,99.775C-24.413,99.775 -44.291,77.412 -44.291,49.9C-44.291,22.389 -24.413,0 0,0C24.412,0 44.29,22.389 44.29,49.9C44.29,77.412 24.412,99.775 0,99.775M44.29,-29.535L44.29,-13.679C31.79,-23.771 16.343,-29.535 0,-29.535C-40.704,-29.535 -73.826,6.097 -73.826,49.9C-73.826,93.678 -40.704,129.31 0,129.31C16.343,129.31 31.79,123.546 44.29,113.48L44.29,129.31L73.826,129.31L73.826,-29.535L44.29,-29.535Z" style="fill:white;fill-rule:nonzero;"/>
        </g>
        <g transform="matrix(1,0,0,1,239.041,77.0037)">
            <path d="M0,-7.378L-39.577,-7.25L-39.577,-42.856L0.051,-42.856C12.04,-42.856 21.799,-34.787 21.799,-24.874C21.799,-15.242 12.04,-7.378 0,-7.378M0,-64.194L-50.054,-63.989L-60.71,-63.989L-60.787,2.894L-61.376,12.756L-60.813,12.833L-60.838,46.826C-57.765,47.851 -54.742,49.055 -51.745,50.387C-50.746,50.822 -49.695,51.309 -48.671,51.821C-45.571,53.307 -42.548,54.997 -39.577,56.816L-39.577,13.909L0.051,13.909C23.797,13.909 43.112,-3.484 43.112,-24.874C43.112,-46.545 23.797,-64.194 0,-64.194" style="fill:white;fill-rule:nonzero;"/>
        </g>
        <g transform="matrix(1,0,0,1,342.735,68.4473)">
            <path d="M0,57.944C-14.089,57.944 -25.539,44.931 -25.539,28.972C-25.539,12.987 -14.089,0 0,0C14.089,0 25.539,12.987 25.539,28.972C25.539,44.931 14.089,57.944 0,57.944M25.539,-21.312L25.539,-13.218C18.085,-18.392 9.273,-21.312 0,-21.312C-25.847,-21.312 -46.852,1.256 -46.852,28.972C-46.852,56.689 -25.847,79.256 0,79.256C9.273,79.256 18.085,76.337 25.539,71.136L25.539,79.256L46.852,79.256L46.852,-21.312L25.539,-21.312Z" style="fill:white;fill-rule:nonzero;"/>
        </g>
        <g transform="matrix(1,0,0,1,440.223,140.681)">
            <path d="M0,-86.527L0.171,-86.527L0.171,-93.548L-21.31,-93.548L-21.31,7.021L0,7.021L0,-86.527Z" style="fill:white;fill-rule:nonzero;"/>
        </g>
        <g transform="matrix(1,0,0,1,642.622,32.6103)">
            <path d="M0,93.781C-14.089,93.781 -25.539,80.768 -25.539,64.809C-25.539,48.824 -14.089,35.837 0,35.837C14.089,35.837 25.54,48.824 25.54,64.809C25.54,80.768 14.089,93.781 0,93.781M25.54,-21.312L25.54,22.619C18.085,17.445 9.273,14.525 0,14.525C-25.846,14.525 -46.852,37.093 -46.852,64.809C-46.852,92.526 -25.846,115.093 0,115.093C9.273,115.093 18.085,112.174 25.54,106.973L25.54,115.093L46.852,115.093L46.852,-21.312L25.54,-21.312Z" style="fill:white;fill-rule:nonzero;"/>
        </g>
        <g transform="matrix(1,0,0,1,756.896,68.4473)">
            <path d="M0,57.944C-14.063,57.944 -25.539,44.931 -25.539,28.972C-25.539,12.987 -14.063,0 0,0C14.089,0 25.565,12.987 25.565,28.972C25.565,44.931 14.089,57.944 0,57.944M25.565,-21.312L25.565,-13.218C18.111,-18.392 9.299,-21.312 0,-21.312C-25.821,-21.312 -46.826,1.256 -46.826,28.972C-46.826,56.689 -25.821,79.256 0,79.256C9.299,79.256 18.111,76.337 25.565,71.136L25.565,79.256L46.852,79.256L46.852,-21.312L25.565,-21.312Z" style="fill:white;fill-rule:nonzero;"/>
        </g>
        <g transform="matrix(1,0,0,1,870.16,47.3079)">
            <path d="M0,100.394C23.281,100.394 42.22,82.84 42.22,61.293L42.39,11.175L43.633,0L20.911,0L20.911,61.263C20.911,71.09 11.531,79.085 0,79.085C-11.427,79.085 -21.082,70.923 -21.082,61.293L-20.912,11.175L-19.669,0L-42.391,0L-42.391,61.263C-42.391,82.84 -23.375,100.394 0,100.394" style="fill:white;fill-rule:nonzero;"/>
        </g>
        <g transform="matrix(-1,0,0,1,859.308,-358.483)">
            <rect x="418.914" y="376.508" width="21.48" height="18.542" style="fill:white;"/>
        </g>
    </g>
</svg>
